2 Kaplan-Meier – Survival Analysis
…
    Asymptomatic
37% (25%, 55%)

    Ambulatory
31% (22%, 42%)

    Bedridden
16% (8.4%, 32%)

broom::tidy() summarizes the data by each event time in the data. At time t = 11, 3 of the 138 males at risk died, so \(S(11) = 1 - \frac{3}{138} = .978\). At t = 12, 1 of the 135 that remained died, so \(S(12) = S(11) \cdot \frac{1}{135} = .971\), and so on. This is the support for the survival curves.

broom::tidy(km_fit)

# A tibble: 216 × 9
    time n.risk n.event n.censor estimate std.error conf.high conf.low strata   
   <dbl>  <dbl>   <dbl>    <dbl>    <dbl>     <dbl>     <dbl>    <dbl> <chr>    
 1     5     63       1        0    0.984    0.0160     1        0.954 ph.ecog=…
 2    11     62       1        0    0.968    0.0228     1        0.926 ph.ecog=…
 3    15     61       1        0    0.952    0.0282     1        0.901 ph.ecog=…
 4    31     60       1        0    0.937    0.0328     0.999    0.878 ph.ecog=…
 5    53     59       1        0    0.921    0.0370     0.990    0.856 ph.ecog=…
 6    65     58       1        0    0.905    0.0409     0.980    0.835 ph.ecog=…
 7    81     57       1        0    0.889    0.0445     0.970    0.815 ph.ecog=…
 8   147     56       1        0    0.873    0.0480     0.959    0.795 ph.ecog=…
 9   166     55       1        0    0.857    0.0514     0.948    0.775 ph.ecog=…
10   175     54       0        1    0.857    0.0514     0.948    0.775 ph.ecog=…
# ℹ 206 more rows
…
